<svg xmlns="http://www.w3.org/2000/svg" xmlns:xlink="http://www.w3.org/1999/xlink" xmlns:inkscape="http://www.inkscape.org/namespaces/inkscape" height="100" width="300" id="color_svg" version="1.1">
  <defs id="defs6">
    <linearGradient id="lg1" style="opacity:0.7773566427005639">
      <stop id="stop849" offset="0" style="stop-color:#a490c1;stop-opacity:1;opacity:0.7773566427005639"/>
      <stop id="stop851" offset="1" style="stop-color:#7b61c2;stop-opacity:1;opacity:0.7773566427005639"/>
    </linearGradient>
    <linearGradient id="lg2" style="opacity:0.7773566427005639">
      <stop id="stop841" offset="0" style="stop-color:#65657b;stop-opacity:1;opacity:0.7773566427005639"/>
      <stop id="stop843" offset="1" style="stop-color:#b2402e;stop-opacity:1;opacity:0.7773566427005639"/>
    </linearGradient>
    <linearGradient id="ColorName" inkscape:swatch="solid" style="opacity:0.7773566427005639">
      <stop id="stop844" offset="0" style="stop-color:#2861c3;stop-opacity:1;opacity:0.7773566427005639"/>
    </linearGradient>
    <linearGradient gradientUnits="userSpaceOnUse" y2="55" x2="235" y1="15" x1="195" id="slg1" xlink:href="#lg2" style="opacity:0.7773566427005639"/>
    <linearGradient gradientUnits="userSpaceOnUse" y2="15" x2="235" y1="55" x1="195" id="slg2" xlink:href="#lg1" style="opacity:0.7773566427005639"/>
    <linearGradient gradientUnits="userSpaceOnUse" y2="15" x2="265" y1="55" x1="195" id="slg3" xlink:href="#lg1" style="opacity:0.7773566427005639"/>
    <linearGradient gradientUnits="userSpaceOnUse" y2="15" x2="265" y1="55" x1="195" id="slg4" xlink:href="#ColorName" style="opacity:0.7773566427005639"/>
    <style id="style0"><![CDATA[
#r2 {
  fill:#3465a4;
  stroke:#729fcf;
  stop-color:blue;
}
    ]]></style>
  </defs>
  <!--Regular shape with style properties-->
  <rect y="15" x="10" height="40" width="40" id="r1" style="opacity:0.7773566427005639;fill:#65657b;fill-opacity:0.9;stroke:#63596e;stroke-width:10;stroke-miterlimit:4;stroke-dasharray:none;stroke-opacity:0.5;paint-order:markers fill stroke;stop-color:#d15e4d"/>
  <!--Regular shape with css styles-->
  <rect y="15" x="60" height="40" width="40" id="r2" style="opacity:0.7773566427005639;fill-opacity:1;stroke-width:10;stroke-miterlimit:4;stroke-dasharray:none;stroke-opacity:1;paint-order:markers fill stroke;stroke:#a490c1;fill:#7b61c2;stop-color:#d14dc2"/>
  <!--Regular shape with element attributes-->
  <rect y="15" x="110" height="40" width="40" id="r3" fill="#cc0000" fill-opacity="0.9" stroke="#2e3436" stroke-opacity="0.5" style="opacity:0.7146382396744336;stroke:#6e6586;stroke-width:10;stroke-miterlimit:4;stroke-dasharray:none;paint-order:markers fill stroke;stop-color:#d15e4d;fill:#b2402e"/>
  <!--Regular shape with swatch-->
  <rect y="15" x="160" height="40" width="40" id="r4" style="opacity:0.7773566427005639;fill:url(#slg4);fill-opacity:1;stroke:url(#slg2);stroke-width:10;stroke-miterlimit:4;stroke-dasharray:none;stroke-opacity:0.5;paint-order:markers fill stroke;stop-color:#4c322f"/>
  <!--Regular shape with gradients-->
  <rect y="15" x="210" height="40" width="40" id="r6" style="opacity:0.7773566427005639;fill:url(#slg1);fill-opacity:1;stroke:url(#slg2);stroke-width:10;stroke-miterlimit:4;stroke-dasharray:none;stroke-opacity:0.5;paint-order:markers fill stroke;stop-color:#4c322f"/>
  <!--A copy of the gradient to test url hygiene-->
  <rect y="15" x="260" height="40" width="40" id="r5" style="opacity:0.7773566427005639;fill:url(#slg1);fill-opacity:1;stroke:url(#slg3);stroke-width:10;stroke-miterlimit:4;stroke-dasharray:none;stroke-opacity:0.5;paint-order:markers fill stroke;stop-color:#4c322f"/>
</svg>