<!-- Created with Inkscape (http://www.inkscape.org/) --><svg xmlns:dc="http://purl.org/dc/elements/1.1/" xmlns:cc="http://creativecommons.org/ns#" xmlns:rdf="http://www.w3.org/1999/02/22-rdf-syntax-ns#" xmlns:svg="http://www.w3.org/2000/svg" xmlns="http://www.w3.org/2000/svg" xmlns:xlink="http://www.w3.org/1999/xlink" xmlns:sodipodi="http://sodipodi.sourceforge.net/DTD/sodipodi-0.dtd" xmlns:inkscape="http://www.inkscape.org/namespaces/inkscape" width="412.29788mm" height="582.05017mm" viewBox="0 0 412.29789 582.05017" version="1.1" id="svg8" inkscape:version="0.92.4 (5da689c313, 2019-01-14)" sodipodi:docname="interp_shapes.svg">
  <defs id="defs2">
    <linearGradient id="linearGradient877" inkscape:collect="always">
      <stop id="stop873" offset="0" style="stop-color:#008000;stop-opacity:1"/>
      <stop style="stop-color:#7b0000;stop-opacity:1" offset="0.48378384" id="stop879"/>
      <stop id="stop875" offset="1" style="stop-color:rgb(0, 0, 255);stop-opacity:1"/>
    </linearGradient>
    <linearGradient inkscape:collect="always" id="linearGradient845">
      <stop style="stop-color:#008000;stop-opacity:1" offset="0" id="stop841"/>
      <stop style="stop-color:blue;stop-opacity:1" offset="1" id="stop843"/>
    </linearGradient>
    <linearGradient inkscape:collect="always" xlink:href="#linearGradient845" id="linearGradient847" x1="13.096875" y1="138.45702" x2="13.096875" y2="104.24652" gradientUnits="userSpaceOnUse" gradientTransform="translate(4.47014, 54.8796)"/>
    <linearGradient inkscape:collect="always" xlink:href="#linearGradient845" id="linearGradient855" x1="184.80772" y1="102.37889" x2="184.80772" y2="136.77472" gradientUnits="userSpaceOnUse" gradientTransform="translate(151.224, 57.4921)"/>
    <linearGradient inkscape:collect="always" xlink:href="#linearGradient845" id="linearGradient863" x1="-1.3985118" y1="176.12321" x2="40.708035" y2="176.12321" gradientUnits="userSpaceOnUse" gradientTransform="translate(-1.95545, 127.316)"/>
    <linearGradient inkscape:collect="always" xlink:href="#linearGradient877" id="linearGradient871" x1="175.11636" y1="193.24553" x2="205.50565" y2="154.314" gradientUnits="userSpaceOnUse" gradientTransform="translate(155.045, 129.47)"/>
    <radialGradient inkscape:collect="always" xlink:href="#linearGradient877" id="radialGradient887" cx="16.167852" cy="249.2552" fx="16.167852" fy="249.2552" r="36.377525" gradientTransform="matrix(1 0 0 0.997651 1.53145 204.301)" gradientUnits="userSpaceOnUse"/>
    <radialGradient inkscape:collect="always" xlink:href="#linearGradient845" id="radialGradient897" cx="193.54523" cy="249.20023" fx="193.54523" fy="249.20023" r="39.397575" gradientTransform="matrix(1 0 0 1.02433 150.677 197.708)" gradientUnits="userSpaceOnUse"/>
  <svg:linearGradient id="linearGradient5815"><svg:stop style="stop-color:#000000;stop-opacity:1.0" offset="0.0"/><svg:stop style="stop-color:#000000;stop-opacity:1.0" offset="1.0"/></svg:linearGradient><linearGradient x1="9.72092px" x2="25.5959px" y1="57.2939px" y2="57.2939px" xlink:href="#linearGradient5815" id="linearGradient8555"/><svg:linearGradient gradientTransform="translate(0.745024, 9.1466)" id="linearGradient5392"><svg:stop style="stop-color:#001500;stop-opacity:1.0" offset="0.0"/><svg:stop style="stop-color:#00002a;stop-opacity:1.0" offset="1.0"/></svg:linearGradient><linearGradient x1="10.2836px" x2="23.5127px" y1="70.821px" y2="65.1193px" gradientTransform="translate(0.745024, 9.1466)" xlink:href="#linearGradient5392" id="linearGradient9603"/><svg:linearGradient gradientTransform="translate(1.49005, 18.2932)" id="linearGradient4306"><svg:stop style="stop-color:#002b00;stop-opacity:1.0" offset="0.0"/><svg:stop style="stop-color:#000055;stop-opacity:1.0" offset="1.0"/></svg:linearGradient><linearGradient x1="10.8462px" x2="21.4296px" y1="84.3482px" y2="72.9447px" gradientTransform="translate(1.49005, 18.2932)" xlink:href="#linearGradient4306" id="linearGradient7856"/><svg:linearGradient gradientTransform="translate(2.23507, 27.4398)" id="linearGradient5654"><svg:stop style="stop-color:#004000;stop-opacity:1.0" offset="0.0"/><svg:stop style="stop-color:#000080;stop-opacity:1.0" offset="1.0"/></svg:linearGradient><linearGradient x1="11.4089px" x2="19.3464px" y1="97.8754px" y2="80.7702px" gradientTransform="translate(2.23507, 27.4398)" xlink:href="#linearGradient5654" id="linearGradient6457"/><svg:linearGradient gradientTransform="translate(2.9801, 36.5864)" id="linearGradient2304"><svg:stop style="stop-color:#005500;stop-opacity:1.0" offset="0.0"/><svg:stop style="stop-color:#0000aa;stop-opacity:1.0" offset="1.0"/></svg:linearGradient><linearGradient x1="11.9716px" x2="17.2632px" y1="111.403px" y2="88.5956px" gradientTransform="translate(2.9801, 36.5864)" xlink:href="#linearGradient2304" id="linearGradient5347"/><svg:linearGradient gradientTransform="translate(3.72512, 45.733)" id="linearGradient266"><svg:stop style="stop-color:#006b00;stop-opacity:1.0" offset="0.0"/><svg:stop style="stop-color:#0000d4;stop-opacity:1.0" offset="1.0"/></svg:linearGradient><linearGradient x1="12.5342px" x2="15.18px" y1="124.93px" y2="96.4211px" gradientTransform="translate(3.72512, 45.733)" xlink:href="#linearGradient266" id="linearGradient5447"/><svg:linearGradient gradientTransform="translate(4.47014, 54.8796)" id="linearGradient4780"><svg:stop style="stop-color:#008000;stop-opacity:1.0" offset="0.0"/><svg:stop style="stop-color:#0000ff;stop-opacity:1.0" offset="1.0"/></svg:linearGradient><linearGradient x1="13.0969px" x2="13.0969px" y1="138.457px" y2="104.247px" gradientTransform="translate(4.47014, 54.8796)" xlink:href="#linearGradient4780" id="linearGradient6654"/><svg:linearGradient inkscape:collect="always" xlink:href="#linearGradient845" x1="13.0969px" y1="138.457px" x2="13.0969px" y2="104.247px" gradientUnits="userSpaceOnUse" gradientTransform="translate(4.47014, 54.8796)" id="linearGradient2036"/>
    <svg:linearGradient inkscape:collect="always" xlink:href="#linearGradient845" x1="41.7153px" y1="132.444px" x2="41.7153px" y2="109.668px" gradientUnits="userSpaceOnUse" gradientTransform="translate(28.9291, 55.315)" id="linearGradient2897"/>
    <svg:linearGradient inkscape:collect="always" xlink:href="#linearGradient845" x1="70.3338px" y1="126.431px" x2="70.3338px" y2="115.089px" gradientUnits="userSpaceOnUse" gradientTransform="translate(53.3881, 55.7504)" id="linearGradient167"/>
    <svg:linearGradient inkscape:collect="always" xlink:href="#linearGradient845" x1="98.9523px" y1="120.418px" x2="98.9523px" y2="120.511px" gradientUnits="userSpaceOnUse" gradientTransform="translate(77.8471, 56.1858)" id="linearGradient3847"/>
    <svg:linearGradient inkscape:collect="always" xlink:href="#linearGradient845" x1="127.571px" y1="114.405px" x2="127.571px" y2="125.932px" gradientUnits="userSpaceOnUse" gradientTransform="translate(102.306, 56.6212)" id="linearGradient3066"/>
    <svg:linearGradient inkscape:collect="always" xlink:href="#linearGradient845" x1="156.189px" y1="108.392px" x2="156.189px" y2="131.353px" gradientUnits="userSpaceOnUse" gradientTransform="translate(126.765, 57.0567)" id="linearGradient9549"/>
    <svg:linearGradient inkscape:collect="always" xlink:href="#linearGradient845" x1="184.808px" y1="102.379px" x2="184.808px" y2="136.775px" gradientUnits="userSpaceOnUse" gradientTransform="translate(151.224, 57.4921)" id="linearGradient6173"/>
    <svg:linearGradient inkscape:collect="always" xlink:href="#linearGradient877" x1="175.116px" y1="193.246px" x2="205.506px" y2="154.314px" gradientUnits="userSpaceOnUse" gradientTransform="translate(155.045, 129.47)" id="linearGradient3811"/>
    <svg:linearGradient inkscape:collect="always" xlink:href="#linearGradient845" gradientUnits="userSpaceOnUse" gradientTransform="translate(151.224, 57.4921)" id="linearGradient2266"><svg:stop style="stop-color:#008000;stop-opacity:1.0" offset="0.0"/><svg:stop style="stop-color:#0000ff;stop-opacity:1.0" offset="1.0"/></svg:linearGradient>
    <linearGradient inkscape:collect="always" xlink:href="#linearGradient2266" x1="184.808px" y1="102.379px" x2="184.808px" y2="136.775px" gradientUnits="userSpaceOnUse" gradientTransform="translate(151.224, 57.4921)" id="linearGradient5174"/>
    <svg:linearGradient inkscape:collect="always" xlink:href="#linearGradient877" x1="175.116px" y1="193.246px" x2="205.506px" y2="154.314px" gradientUnits="userSpaceOnUse" gradientTransform="translate(155.045, 129.47)" id="linearGradient1829"/>
    <svg:linearGradient inkscape:collect="always" xlink:href="#linearGradient845" gradientUnits="userSpaceOnUse" gradientTransform="translate(126.02, 47.9101)" id="linearGradient4426"><svg:stop style="stop-color:#006b00;stop-opacity:1.0" offset="0.0"/><svg:stop style="stop-color:#0000d4;stop-opacity:1.0" offset="1.0"/></svg:linearGradient>
    <linearGradient inkscape:collect="always" xlink:href="#linearGradient4426" x1="207.251px" y1="135.889px" x2="215.503px" y2="164.552px" gradientUnits="userSpaceOnUse" gradientTransform="translate(126.02, 47.9101)" id="linearGradient4684"/>
    <svg:linearGradient inkscape:collect="always" xlink:href="#linearGradient877" x1="175.116px" y1="193.246px" x2="205.506px" y2="154.314px" gradientUnits="userSpaceOnUse" gradientTransform="translate(155.045, 129.47)" id="linearGradient6005"/>
    <svg:linearGradient inkscape:collect="always" xlink:href="#linearGradient845" gradientUnits="userSpaceOnUse" gradientTransform="translate(100.816, 38.3281)" id="linearGradient224"><svg:stop style="stop-color:#005500;stop-opacity:1.0" offset="0.0"/><svg:stop style="stop-color:#0000aa;stop-opacity:1.0" offset="1.0"/></svg:linearGradient>
    <linearGradient inkscape:collect="always" xlink:href="#linearGradient224" x1="229.693px" y1="169.399px" x2="246.198px" y2="192.329px" gradientUnits="userSpaceOnUse" gradientTransform="translate(100.816, 38.3281)" id="linearGradient771"/>
    <svg:linearGradient inkscape:collect="always" xlink:href="#linearGradient877" x1="175.116px" y1="193.246px" x2="205.506px" y2="154.314px" gradientUnits="userSpaceOnUse" gradientTransform="translate(155.045, 129.47)" id="linearGradient9629"/>
    <svg:linearGradient inkscape:collect="always" xlink:href="#linearGradient845" gradientUnits="userSpaceOnUse" gradientTransform="translate(75.612, 28.7461)" id="linearGradient5989"><svg:stop style="stop-color:#004000;stop-opacity:1.0" offset="0.0"/><svg:stop style="stop-color:#000080;stop-opacity:1.0" offset="1.0"/></svg:linearGradient>
    <linearGradient inkscape:collect="always" xlink:href="#linearGradient5989" x1="252.136px" y1="202.909px" x2="276.894px" y2="220.107px" gradientUnits="userSpaceOnUse" gradientTransform="translate(75.612, 28.7461)" id="linearGradient3449"/>
    <svg:linearGradient inkscape:collect="always" xlink:href="#linearGradient877" x1="175.116px" y1="193.246px" x2="205.506px" y2="154.314px" gradientUnits="userSpaceOnUse" gradientTransform="translate(155.045, 129.47)" id="linearGradient3816"/>
    <svg:linearGradient inkscape:collect="always" xlink:href="#linearGradient845" gradientUnits="userSpaceOnUse" gradientTransform="translate(50.408, 19.164)" id="linearGradient76"><svg:stop style="stop-color:#002b00;stop-opacity:1.0" offset="0.0"/><svg:stop style="stop-color:#000055;stop-opacity:1.0" offset="1.0"/></svg:linearGradient>
    <linearGradient inkscape:collect="always" xlink:href="#linearGradient76" x1="274.579px" y1="236.419px" x2="307.589px" y2="247.884px" gradientUnits="userSpaceOnUse" gradientTransform="translate(50.408, 19.164)" id="linearGradient3710"/>
    <svg:linearGradient inkscape:collect="always" xlink:href="#linearGradient877" x1="175.116px" y1="193.246px" x2="205.506px" y2="154.314px" gradientUnits="userSpaceOnUse" gradientTransform="translate(155.045, 129.47)" id="linearGradient5768"/>
    <svg:linearGradient inkscape:collect="always" xlink:href="#linearGradient845" gradientUnits="userSpaceOnUse" gradientTransform="translate(25.204, 9.58202)" id="linearGradient8950"><svg:stop style="stop-color:#001500;stop-opacity:1.0" offset="0.0"/><svg:stop style="stop-color:#00002a;stop-opacity:1.0" offset="1.0"/></svg:linearGradient>
    <linearGradient inkscape:collect="always" xlink:href="#linearGradient8950" x1="297.022px" y1="269.929px" x2="338.284px" y2="275.662px" gradientUnits="userSpaceOnUse" gradientTransform="translate(25.204, 9.58202)" id="linearGradient5011"/>
    <svg:linearGradient inkscape:collect="always" xlink:href="#linearGradient877" x1="175.116px" y1="193.246px" x2="205.506px" y2="154.314px" gradientUnits="userSpaceOnUse" gradientTransform="translate(155.045, 129.47)" id="linearGradient422"/>
    <svg:linearGradient inkscape:collect="always" xlink:href="#linearGradient845" gradientUnits="userSpaceOnUse" id="linearGradient9046"><svg:stop style="stop-color:#000000;stop-opacity:1.0" offset="0.0"/><svg:stop style="stop-color:#000000;stop-opacity:1.0" offset="1.0"/></svg:linearGradient>
    <linearGradient inkscape:collect="always" xlink:href="#linearGradient9046" x1="319.465px" y1="303.439px" x2="368.98px" y2="303.439px" gradientUnits="userSpaceOnUse" id="linearGradient6361"/>
    <svg:linearGradient inkscape:collect="always" xlink:href="#linearGradient877" gradientUnits="userSpaceOnUse" gradientTransform="translate(155.045, 129.47)" id="linearGradient9826"><svg:stop style="stop-color:#008000;stop-opacity:1.0" offset="0.0"/><svg:stop style="stop-color:#7b0000;stop-opacity:1.0" offset="0.48378384"/><svg:stop style="stop-color:#0000ff;stop-opacity:1.0" offset="1.0"/></svg:linearGradient>
    <linearGradient inkscape:collect="always" xlink:href="#linearGradient9826" x1="175.116px" y1="193.246px" x2="205.506px" y2="154.314px" gradientUnits="userSpaceOnUse" gradientTransform="translate(155.045, 129.47)" id="linearGradient1050"/>
    <svg:linearGradient inkscape:collect="always" xlink:href="#linearGradient877" gradientUnits="userSpaceOnUse" gradientTransform="translate(128.878, 129.111)" id="linearGradient5134"><svg:stop style="stop-color:#008000;stop-opacity:1.0" offset="0.0"/><svg:stop style="stop-color:#660b14;stop-opacity:1.0" offset="0.48378384"/><svg:stop style="stop-color:#0000ff;stop-opacity:1.0" offset="1.0"/></svg:linearGradient>
    <linearGradient inkscape:collect="always" xlink:href="#linearGradient5134" x1="145.697px" y1="190.392px" x2="178.039px" y2="157.949px" gradientUnits="userSpaceOnUse" gradientTransform="translate(128.878, 129.111)" id="linearGradient2924"/>
    <svg:linearGradient inkscape:collect="always" xlink:href="#linearGradient877" gradientUnits="userSpaceOnUse" gradientTransform="translate(102.712, 128.752)" id="linearGradient2155"><svg:stop style="stop-color:#008000;stop-opacity:1.0" offset="0.0"/><svg:stop style="stop-color:#521629;stop-opacity:1.0" offset="0.48378384"/><svg:stop style="stop-color:#0000ff;stop-opacity:1.0" offset="1.0"/></svg:linearGradient>
    <linearGradient inkscape:collect="always" xlink:href="#linearGradient2155" x1="116.278px" y1="187.538px" x2="150.573px" y2="161.584px" gradientUnits="userSpaceOnUse" gradientTransform="translate(102.712, 128.752)" id="linearGradient4337"/>
    <svg:linearGradient inkscape:collect="always" xlink:href="#linearGradient877" gradientUnits="userSpaceOnUse" gradientTransform="translate(76.5448, 128.393)" id="linearGradient6394"><svg:stop style="stop-color:#008000;stop-opacity:1.0" offset="0.0"/><svg:stop style="stop-color:#3e213e;stop-opacity:1.0" offset="0.48378384"/><svg:stop style="stop-color:#0000ff;stop-opacity:1.0" offset="1.0"/></svg:linearGradient>
    <linearGradient inkscape:collect="always" xlink:href="#linearGradient6394" x1="86.8589px" y1="184.684px" x2="123.107px" y2="165.219px" gradientUnits="userSpaceOnUse" gradientTransform="translate(76.5448, 128.393)" id="linearGradient3443"/>
    <svg:linearGradient inkscape:collect="always" xlink:href="#linearGradient877" gradientUnits="userSpaceOnUse" gradientTransform="translate(50.378, 128.034)" id="linearGradient9699"><svg:stop style="stop-color:#008000;stop-opacity:1.0" offset="0.0"/><svg:stop style="stop-color:#292c52;stop-opacity:1.0" offset="0.48378384"/><svg:stop style="stop-color:#0000ff;stop-opacity:1.0" offset="1.0"/></svg:linearGradient>
    <linearGradient inkscape:collect="always" xlink:href="#linearGradient9699" x1="57.4398px" y1="181.831px" x2="95.6406px" y2="168.853px" gradientUnits="userSpaceOnUse" gradientTransform="translate(50.378, 128.034)" id="linearGradient3230"/>
    <svg:linearGradient inkscape:collect="always" xlink:href="#linearGradient877" gradientUnits="userSpaceOnUse" gradientTransform="translate(24.2113, 127.675)" id="linearGradient161"><svg:stop style="stop-color:#008000;stop-opacity:1.0" offset="0.0"/><svg:stop style="stop-color:#143766;stop-opacity:1.0" offset="0.48378384"/><svg:stop style="stop-color:#0000ff;stop-opacity:1.0" offset="1.0"/></svg:linearGradient>
    <linearGradient inkscape:collect="always" xlink:href="#linearGradient161" x1="28.0206px" y1="178.977px" x2="68.1743px" y2="172.488px" gradientUnits="userSpaceOnUse" gradientTransform="translate(24.2113, 127.675)" id="linearGradient8683"/>
    <svg:linearGradient inkscape:collect="always" xlink:href="#linearGradient877" gradientUnits="userSpaceOnUse" gradientTransform="translate(-1.95545, 127.316)" id="linearGradient7955"><svg:stop style="stop-color:#008000;stop-opacity:1.0" offset="0.0"/><svg:stop style="stop-color:#00427b;stop-opacity:1.0" offset="0.48378384"/><svg:stop style="stop-color:#0000ff;stop-opacity:1.0" offset="1.0"/></svg:linearGradient>
    <linearGradient inkscape:collect="always" xlink:href="#linearGradient7955" x1="-1.39851px" y1="176.123px" x2="40.708px" y2="176.123px" gradientUnits="userSpaceOnUse" gradientTransform="translate(-1.95545, 127.316)" id="linearGradient6015"/>
    <svg:radialGradient inkscape:collect="always" xlink:href="#linearGradient877" gradientTransform="matrix(1 0 0 0.997651 1.53145 204.301)" gradientUnits="userSpaceOnUse" id="radialGradient4780"><svg:stop style="stop-color:#008000;stop-opacity:1.0" offset="0.0"/><svg:stop style="stop-color:#7b0000;stop-opacity:1.0" offset="0.48378384"/><svg:stop style="stop-color:#0000ff;stop-opacity:1.0" offset="1.0"/></svg:radialGradient>
    <radialGradient inkscape:collect="always" xlink:href="#radialGradient4780" cx="16.1679px" cy="249.255px" fx="16.1679px" fy="249.255px" r="36.3775px" gradientTransform="matrix(1 0 0 0.997651 1.53145 204.301)" gradientUnits="userSpaceOnUse" id="radialGradient827"/>
    <svg:radialGradient inkscape:collect="always" xlink:href="#linearGradient877" gradientTransform="matrix(1 0 0 1.0021 26.389 203.202)" gradientUnits="userSpaceOnUse" id="radialGradient7287"><svg:stop style="stop-color:#008000;stop-opacity:1.0" offset="0.0"/><svg:stop style="stop-color:#660b14;stop-opacity:1.0" offset="0.48378384"/><svg:stop style="stop-color:#0000ff;stop-opacity:1.0" offset="1.0"/></svg:radialGradient>
    <radialGradient inkscape:collect="always" xlink:href="#radialGradient7287" cx="45.7307px" cy="249.246px" fx="45.7307px" fy="249.246px" r="36.8809px" gradientTransform="matrix(1 0 0 1.0021 26.389 203.202)" gradientUnits="userSpaceOnUse" id="radialGradient2863"/>
    <svg:radialGradient inkscape:collect="always" xlink:href="#linearGradient877" gradientTransform="matrix(1 0 0 1.00654 51.2466 202.103)" gradientUnits="userSpaceOnUse" id="radialGradient3679"><svg:stop style="stop-color:#008000;stop-opacity:1.0" offset="0.0"/><svg:stop style="stop-color:#521629;stop-opacity:1.0" offset="0.48378384"/><svg:stop style="stop-color:#0000ff;stop-opacity:1.0" offset="1.0"/></svg:radialGradient>
    <radialGradient inkscape:collect="always" xlink:href="#radialGradient3679" cx="75.2936px" cy="249.237px" fx="75.2936px" fy="249.237px" r="37.3842px" gradientTransform="matrix(1 0 0 1.00654 51.2466 202.103)" gradientUnits="userSpaceOnUse" id="radialGradient3413"/>
    <svg:radialGradient inkscape:collect="always" xlink:href="#linearGradient877" gradientTransform="matrix(1 0 0 1.01099 76.1042 201.004)" gradientUnits="userSpaceOnUse" id="radialGradient3730"><svg:stop style="stop-color:#008000;stop-opacity:1.0" offset="0.0"/><svg:stop style="stop-color:#3e213e;stop-opacity:1.0" offset="0.48378384"/><svg:stop style="stop-color:#0000ff;stop-opacity:1.0" offset="1.0"/></svg:radialGradient>
    <radialGradient inkscape:collect="always" xlink:href="#radialGradient3730" cx="104.857px" cy="249.228px" fx="104.857px" fy="249.228px" r="37.8876px" gradientTransform="matrix(1 0 0 1.01099 76.1042 201.004)" gradientUnits="userSpaceOnUse" id="radialGradient9027"/>
    <svg:radialGradient inkscape:collect="always" xlink:href="#linearGradient877" gradientTransform="matrix(1 0 0 1.01544 100.962 199.905)" gradientUnits="userSpaceOnUse" id="radialGradient9904"><svg:stop style="stop-color:#008000;stop-opacity:1.0" offset="0.0"/><svg:stop style="stop-color:#292c52;stop-opacity:1.0" offset="0.48378384"/><svg:stop style="stop-color:#0000ff;stop-opacity:1.0" offset="1.0"/></svg:radialGradient>
    <radialGradient inkscape:collect="always" xlink:href="#radialGradient9904" cx="134.419px" cy="249.219px" fx="134.419px" fy="249.219px" r="38.3909px" gradientTransform="matrix(1 0 0 1.01544 100.962 199.905)" gradientUnits="userSpaceOnUse" id="radialGradient1770"/>
    <svg:radialGradient inkscape:collect="always" xlink:href="#linearGradient877" gradientTransform="matrix(1 0 0 1.01988 125.819 198.807)" gradientUnits="userSpaceOnUse" id="radialGradient9170"><svg:stop style="stop-color:#008000;stop-opacity:1.0" offset="0.0"/><svg:stop style="stop-color:#143766;stop-opacity:1.0" offset="0.48378384"/><svg:stop style="stop-color:#0000ff;stop-opacity:1.0" offset="1.0"/></svg:radialGradient>
    <radialGradient inkscape:collect="always" xlink:href="#radialGradient9170" cx="163.982px" cy="249.209px" fx="163.982px" fy="249.209px" r="38.8942px" gradientTransform="matrix(1 0 0 1.01988 125.819 198.807)" gradientUnits="userSpaceOnUse" id="radialGradient2475"/>
    <svg:radialGradient inkscape:collect="always" xlink:href="#linearGradient877" gradientTransform="matrix(1 0 0 1.02433 150.677 197.708)" gradientUnits="userSpaceOnUse" id="radialGradient3990"><svg:stop style="stop-color:#008000;stop-opacity:1.0" offset="0.0"/><svg:stop style="stop-color:#00427b;stop-opacity:1.0" offset="0.48378384"/><svg:stop style="stop-color:#0000ff;stop-opacity:1.0" offset="1.0"/></svg:radialGradient>
    <radialGradient inkscape:collect="always" xlink:href="#radialGradient3990" cx="193.545px" cy="249.2px" fx="193.545px" fy="249.2px" r="39.3976px" gradientTransform="matrix(1 0 0 1.02433 150.677 197.708)" gradientUnits="userSpaceOnUse" id="radialGradient5759"/>
    </defs>
  <sodipodi:namedview id="base" pagecolor="#ffffff" bordercolor="#666666" borderopacity="1.0" inkscape:pageopacity="0.0" inkscape:pageshadow="2" inkscape:zoom="0.24748737" inkscape:cx="960.55908" inkscape:cy="968.73534" inkscape:document-units="mm" inkscape:current-layer="layer1" showgrid="false" inkscape:window-width="1920" inkscape:window-height="1016" inkscape:window-x="0" inkscape:window-y="27" inkscape:window-maximized="1" fit-margin-top="5" fit-margin-left="5" fit-margin-right="5" fit-margin-bottom="5"/>
  <metadata id="metadata5">
    <rdf:RDF>
      <cc:Work rdf:about="">
        <dc:format>image/svg+xml</dc:format>
        <dc:type rdf:resource="http://purl.org/dc/dcmitype/StillImage"/>
        <dc:title/>
      </cc:Work>
    </rdf:RDF>
  </metadata>
  <g inkscape:label="Layer 1" inkscape:groupmode="layer" id="layer1" transform="translate(23.678219,83.72371)">
    <path style="fill:none;fill-opacity:0.0;stroke:#ff0000;stroke-width:0.26458332px;stroke-linecap:butt;stroke-linejoin:miter;stroke-opacity:1" d="M 9.7209163,-78.632799 25.595916,-61.850656 9.7209163,-44.236966" id="path1" inkscape:connector-curvature="0" sodipodi:nodetypes="ccc"/>
    <path style="fill:none;stroke:#0000ff;stroke-width:0.26458332px;stroke-linecap:butt;stroke-linejoin:miter;stroke-opacity:1;fill-opacity:0.0" d="m 352.20047,-78.632799 -15.87499,16.782143 15.87499,17.61369" id="path2" inkscape:connector-curvature="0" sodipodi:nodetypes="ccc"/>
    <path style="fill:#ff0000;stroke:#000000;stroke-width:0.26458332px;stroke-linecap:butt;stroke-linejoin:miter;stroke-opacity:1" d="M 9.7209153,40.095939 25.595916,56.878079 9.7209153,74.491769" id="path4" inkscape:connector-curvature="0" sodipodi:nodetypes="ccc"/>
    <path style="fill:#0000ff;stroke:#000000;stroke-width:0.26458332px;stroke-linecap:butt;stroke-linejoin:miter;stroke-opacity:1" d="M 361.41883,49.314289 344.63669,65.189299 327.023,49.314289" id="path3" inkscape:connector-curvature="0" sodipodi:nodetypes="ccc"/>
    <path style="fill:none;stroke:url(#linearGradient855);stroke-width:1;stroke-linecap:butt;stroke-linejoin:miter;stroke-miterlimit:4;stroke-dasharray:none;stroke-opacity:1;fill-opacity:0.0" d="m 336.13003,159.30516 15.87501,16.78216 -15.87501,17.61369" id="path6" inkscape:connector-curvature="0" sodipodi:nodetypes="ccc"/>
    <path style="fill:none;stroke:url(#linearGradient847);stroke-width:5;stroke-linecap:butt;stroke-linejoin:miter;stroke-miterlimit:4;stroke-dasharray:none;stroke-opacity:1;fill-opacity:0.0" d="m 17.699306,158.73377 v 35.52977" id="path5" inkscape:connector-curvature="0"/>
    <path style="opacity:1;vector-effect:none;fill:url(#linearGradient863);fill-opacity:1;stroke:#000000;stroke-width:0.52916664;stroke-linecap:butt;stroke-linejoin:round;stroke-miterlimit:4;stroke-dasharray:none;stroke-dashoffset:0;stroke-opacity:1" d="M -3.0893787,283.40627 H 38.487996 v 40.06548 H -3.0893787 Z" id="path8" inkscape:connector-curvature="0"/>
    <path style="opacity:1;vector-effect:none;fill:url(#linearGradient871);fill-opacity:1;stroke:#000000;stroke-width:0.52916664;stroke-linecap:butt;stroke-linejoin:round;stroke-miterlimit:4;stroke-dasharray:none;stroke-dashoffset:0;stroke-opacity:1" d="m 368.97953,303.43901 a 24.757439,24.757439 0 0 1 -24.75744,24.75744 24.757439,24.757439 0 0 1 -24.75745,-24.75744 24.757439,24.757439 0 0 1 24.75745,-24.75744 24.757439,24.757439 0 0 1 24.75744,24.75744 z" id="path7" inkscape:connector-curvature="0"/>
    <path style="opacity:1;vector-effect:none;fill:url(#radialGradient887);fill-opacity:1;stroke:#000000;stroke-width:0.52916664;stroke-linecap:butt;stroke-linejoin:round;stroke-miterlimit:4;stroke-dasharray:none;stroke-dashoffset:0;stroke-opacity:1" inkscape:transform-center-x="0.84107606" inkscape:transform-center-y="1.0141478" d="m 22.320142,488.998 -12.6461927,-12.53232 -17.7372665,1.54089 1.9133905,-17.70096 -12.2637243,-12.90683 15.0321443,-9.54043 2.44466997,-17.63543 16.83138573,5.80424 15.312163,-9.0842 5.95626,16.7782 16.64929,6.30763 -9.40406,15.11782 5.44916,16.94968 -17.68292,2.07343 z" id="path9" inkscape:connector-curvature="0"/>
    <path style="fill:url(#radialGradient897);fill-opacity:1;fill-rule:evenodd;stroke:#000000;stroke-width:0.26458332" d="m 340.42091,452.01132 c 1.00441,2.06568 -2.28895,2.37306 -3.43329,1.6694 -3.10108,-1.90688 -2.15382,-6.39585 0.0945,-8.53597 4.02172,-3.82817 10.46972,-2.21056 13.63864,1.8584 4.65051,5.97136 2.2891,14.60614 -3.62229,18.74132 -7.87896,5.51154 -18.76571,2.37814 -23.844,-5.38619 -6.3905,-9.77061 -2.47286,-22.93654 7.15008,-28.94667 11.65466,-7.27907 27.11377,-2.5709 34.04935,8.91397 8.17333,13.53453 2.67105,31.295 -10.67787,39.15203 -15.41185,9.07125 -35.47888,2.77259 -44.2547,-12.44176 -9.97164,-17.28752 -2.87512,-39.66464 14.20565,-49.35738 19.16204,-10.87379 43.85176,-2.97835 54.46006,15.96955 11.77722,21.03575 3.0821,48.03989 -17.73344,59.56273" id="path10" inkscape:connector-curvature="0"/>
  <svg:g><path d="M 9.72092 -78.6328 L 25.5959 -61.8507 L 25.5959 -61.8507 L 9.72092 -44.237" style="fill:none;stroke:#ff0000;fill-opacity:0.0;stroke-opacity:1.0;stroke-width:0.264583px"/><path d="M 66.8008 -78.6328 L 77.3842 -61.8507 L 77.3842 -61.8506 C 77.3945 -61.8392 66.8008 -44.237 66.8008 -44.237" style="fill:none;stroke:#d4002a;fill-opacity:0.0;stroke-opacity:1.0;stroke-width:0.264583px"/><path d="M 123.881 -78.6328 L 129.172 -61.8507 L 129.172 -61.8506 C 129.193 -61.8277 123.881 -44.237 123.881 -44.237" style="fill:none;stroke:#aa0055;fill-opacity:0.0;stroke-opacity:1.0;stroke-width:0.264583px"/><path d="M 180.961 -78.6328 L 180.961 -61.8507 L 180.961 -61.8506 C 180.992 -61.8163 180.961 -44.237 180.961 -44.237" style="fill:none;stroke:#800080;fill-opacity:0.0;stroke-opacity:1.0;stroke-width:0.264583px"/><path d="M 238.041 -78.6328 L 232.749 -61.8507 L 232.749 -61.8505 C 232.79 -61.8048 238.041 -44.237 238.041 -44.237" style="fill:none;stroke:#5500aa;fill-opacity:0.0;stroke-opacity:1.0;stroke-width:0.264583px"/><path d="M 295.121 -78.6328 L 284.537 -61.8507 L 284.537 -61.8505 C 284.589 -61.7934 295.121 -44.237 295.121 -44.237" style="fill:none;stroke:#2a00d4;fill-opacity:0.0;stroke-opacity:1.0;stroke-width:0.264583px"/><path d="M 352.2 -78.6328 L 336.325 -61.8507 L 336.326 -61.8505 L 352.2 -44.237" style="fill:none;stroke:#0000ff;fill-opacity:0.0;stroke-opacity:1.0;stroke-width:0.264583px"/></svg:g><svg:g><path d="M 352.2 -78.6328 L 336.325 -61.8507 L 336.325 -61.8507 L 352.2 -44.237" style="fill:#0000ff;stroke:#0000ff;fill-opacity:0.0;stroke-opacity:1.0;stroke-width:0.264583px"/><path d="M 353.737 -57.3083 L 337.711 -40.6773 L 337.711 -40.6774 C 337.699 -40.6877 348.004 -28.6451 348.004 -28.6451" style="fill:#0000ff;stroke:#0000d4;fill-opacity:0.16666666666666666;stroke-opacity:1.0;stroke-width:0.264583px"/><path d="M 355.273 -35.9838 L 339.096 -19.504 L 339.096 -19.5041 C 339.073 -19.5247 343.808 -13.0532 343.808 -13.0532" style="fill:#0000ff;stroke:#0000aa;fill-opacity:0.3333333333333333;stroke-opacity:1.0;stroke-width:0.264583px"/><path d="M 356.81 -14.6593 L 340.481 1.66932 L 340.481 1.66923 C 340.447 1.63835 339.612 2.53866 339.612 2.53866" style="fill:#0000ff;stroke:#000080;fill-opacity:0.5;stroke-opacity:1.0;stroke-width:0.264583px"/><path d="M 358.346 6.66526 L 341.866 22.8426 L 341.866 22.8425 C 341.82 22.8013 335.415 18.1305 335.415 18.1305" style="fill:#0000ff;stroke:#000055;fill-opacity:0.6666666666666666;stroke-opacity:1.0;stroke-width:0.264583px"/><path d="M 359.882 27.9898 L 343.251 44.016 L 343.251 44.0158 C 343.194 43.9643 331.219 33.7224 331.219 33.7224" style="fill:#0000ff;stroke:#00002a;fill-opacity:0.8333333333333334;stroke-opacity:1.0;stroke-width:0.264583px"/><path d="M 361.419 49.3143 L 344.637 65.1893 L 344.636 65.1891 L 327.023 49.3143" style="fill:#0000ff;stroke:#000000;fill-opacity:1.0;stroke-opacity:1.0;stroke-width:0.264583px"/></svg:g><svg:g><path d="M 361.419 49.3143 L 344.637 65.1893 L 344.637 65.1893 L 327.023 49.3143" style="fill:#0000ff;stroke:#000000;stroke-opacity:1.0;stroke-width:0.264583px"/><path d="M 302.803 47.7779 L 291.463 63.8041 L 291.463 63.8041 C 291.453 63.8156 274.139 53.5105 274.139 53.5105" style="fill:#2a00d4;stroke:#000000;stroke-opacity:1.0;stroke-width:0.264583px"/><path d="M 244.186 46.2415 L 238.29 62.4189 L 238.29 62.419 C 238.269 62.4418 221.256 57.7068 221.256 57.7068" style="fill:#5500aa;stroke:#000000;stroke-opacity:1.0;stroke-width:0.264583px"/><path d="M 185.57 44.7051 L 185.116 61.0337 L 185.116 61.0338 C 185.085 61.0681 168.372 61.903 168.372 61.903" style="fill:#800080;stroke:#000000;stroke-opacity:1.0;stroke-width:0.264583px"/><path d="M 126.954 43.1687 L 131.943 59.6485 L 131.943 59.6486 C 131.902 59.6943 115.488 66.0993 115.488 66.0993" style="fill:#aa0055;stroke:#000000;stroke-opacity:1.0;stroke-width:0.264583px"/><path d="M 68.3372 41.6323 L 78.7694 58.2633 L 78.7692 58.2635 C 78.7178 58.3206 62.6046 70.2955 62.6046 70.2955" style="fill:#d4002a;stroke:#000000;stroke-opacity:1.0;stroke-width:0.264583px"/><path d="M 9.72092 40.0959 L 25.5959 56.8781 L 25.5957 56.8783 L 9.72092 74.4918" style="fill:#ff0000;stroke:#000000;stroke-opacity:1.0;stroke-width:0.264583px"/></svg:g><svg:g><path d="M 9.72092 40.0959 L 25.5959 56.8781 L 9.72092 74.4918" style="fill:#ff0000;stroke:url(#linearGradient8555);fill-opacity:1.0;stroke-opacity:1.0;stroke-width:0.264583px"/><path d="M 11.0506 59.8689 C 11.0506 59.8689 24.2798 75.3089 24.2798 76.7764 C 24.2798 78.2695 11.0506 94.4537 11.0506 94.4537" style="fill:#ff0000;stroke:url(#linearGradient9603);fill-opacity:0.8333333333333334;stroke-opacity:1.0;stroke-width:1.05382px"/><path d="M 12.3804 79.6419 C 12.3804 79.6419 22.9637 93.7397 22.9637 96.6746 C 22.9637 99.6609 12.3804 114.416 12.3804 114.416" style="fill:#ff0000;stroke:url(#linearGradient7856);fill-opacity:0.6666666666666667;stroke-opacity:1.0;stroke-width:1.84306px"/><path d="M 13.7101 99.4149 C 13.7101 99.4149 21.6476 112.17 21.6476 116.573 C 21.6476 121.052 13.7101 134.378 13.7101 134.378" style="fill:#ff0000;stroke:url(#linearGradient6457);fill-opacity:0.5;stroke-opacity:1.0;stroke-width:2.63229px"/><path d="M 15.0398 119.188 C 15.0398 119.188 20.3315 130.601 20.3315 136.471 C 20.3315 142.444 15.0398 154.34 15.0398 154.34" style="fill:#ff0000;stroke:url(#linearGradient5347);fill-opacity:0.33333333333333337;stroke-opacity:1.0;stroke-width:3.42153px"/><path d="M 16.3696 138.961 C 16.3696 138.961 19.0154 149.032 19.0154 156.369 C 19.0154 163.835 16.3696 174.302 16.3696 174.302" style="fill:#ff0000;stroke:url(#linearGradient5447);fill-opacity:0.16666666666666663;stroke-opacity:1.0;stroke-width:4.21076px"/><path d="M 17.6993 158.734 L 17.6993 176.268 L 17.6993 194.264" style="fill:#ff0000;stroke:url(#linearGradient6654);fill-opacity:0.0;stroke-opacity:1.0;stroke-width:5px"/></svg:g><svg:g><path d="M 17.6993 158.734 L 17.6993 176.268 L 17.6993 194.264" style="fill:none;stroke:url(#linearGradient2036);fill-opacity:0.0;stroke-opacity:1.0;stroke-width:5px"/><path d="M 70.7711 158.829 C 70.7711 158.829 73.4169 168.9 73.4169 176.238 C 73.4169 183.703 70.7711 194.17 70.7711 194.17" style="fill:none;stroke:url(#linearGradient2897);fill-opacity:0.0;stroke-opacity:1.0;stroke-width:4.33333px"/><path d="M 123.843 158.924 C 123.843 158.924 129.135 170.338 129.135 176.208 C 129.135 182.18 123.843 194.076 123.843 194.076" style="fill:none;stroke:url(#linearGradient167);fill-opacity:0.0;stroke-opacity:1.0;stroke-width:3.66667px"/><path d="M 176.915 159.019 C 176.915 159.019 184.852 171.775 184.852 176.178 C 184.852 180.657 176.915 193.982 176.915 193.982" style="fill:none;stroke:url(#linearGradient3847);fill-opacity:0.0;stroke-opacity:1.0;stroke-width:3px"/><path d="M 229.986 159.115 C 229.986 159.115 240.57 173.213 240.57 176.147 C 240.57 179.134 229.986 193.889 229.986 193.889" style="fill:none;stroke:url(#linearGradient3066);fill-opacity:0.0;stroke-opacity:1.0;stroke-width:2.33333px"/><path d="M 283.058 159.21 C 283.058 159.21 296.287 174.65 296.287 176.117 C 296.287 177.611 283.058 193.795 283.058 193.795" style="fill:none;stroke:url(#linearGradient9549);fill-opacity:0.0;stroke-opacity:1.0;stroke-width:1.66667px"/><path d="M 336.13 159.305 L 352.005 176.087 L 336.13 193.701" style="fill:none;stroke:url(#linearGradient6173);fill-opacity:0.0;stroke-opacity:1.0;stroke-width:1px"/></svg:g><svg:g><path d="M 336.13 159.305 L 340.151 163.556 L 344.173 167.808 L 348.193 172.058 L 352.005 176.087 L 351.8 176.315 L 347.882 180.662 L 343.965 185.008 L 340.048 189.354 L 336.13 193.701 L 336.13 193.701" style="fill:url(#linearGradient3811);stroke:url(#linearGradient5174);fill-opacity:0.0;stroke-opacity:1.0;stroke-width:1px;opacity:1.0"/><path d="M 341.605 183.327 C 341.605 184.422 342.601 186.984 343.748 189.788 C 343.999 191.645 344.114 193.312 344.181 194.539 C 344.256 195.775 344.372 196.572 344.614 196.872 C 345.712 198.075 346.627 198.515 346.585 197.482 C 346.583 197.425 346.522 197.435 346.411 197.502 C 345.969 196.898 345.149 197.241 344.355 198.207 C 344.125 198.547 344.042 199.368 344.008 200.62 C 343.966 201.881 343.883 203.573 343.661 205.451 C 342.558 208.307 341.605 210.896 341.605 211.991 L 341.605 211.991" style="fill:url(#linearGradient1829);stroke:url(#linearGradient4684);fill-opacity:0.16666666666666666;stroke-opacity:1.0;stroke-width:0.921528px;opacity:1.0"/><path d="M 347.08 207.35 C 347.08 209.538 347.355 212.847 347.344 216.019 C 346.616 218.434 345.449 220.289 344.189 221.271 C 342.936 222.259 341.769 222.376 341.034 221.687 C 341.032 221.768 341.25 220.942 341.165 218.876 C 341.161 218.764 341.111 218.704 341.022 218.69 C 340.668 216.893 340.533 215.908 340.827 215.752 C 341.571 215.095 342.765 215.231 344.051 216.233 C 345.33 217.241 346.523 219.116 347.274 221.547 C 347.321 224.761 347.08 228.092 347.08 230.28 L 347.08 230.28" style="fill:url(#linearGradient6005);stroke:url(#linearGradient771);fill-opacity:0.3333333333333333;stroke-opacity:1.0;stroke-width:0.843056px;opacity:1.0"/><path d="M 352.555 231.372 C 352.555 234.655 352.109 238.711 350.94 242.251 C 349.233 245.222 346.784 247.266 344.198 248.002 C 341.616 248.744 339.167 248.179 337.455 246.501 C 336.352 245.462 335.872 243.369 335.745 240.271 C 335.738 240.102 335.699 239.972 335.632 239.877 C 335.367 236.888 335.918 234.575 337.299 233.297 C 339.018 231.644 341.488 231.093 344.093 231.845 C 346.695 232.601 349.164 234.66 350.888 237.644 C 352.083 241.214 352.555 245.287 352.555 248.57 L 352.555 248.57" style="fill:url(#linearGradient9629);stroke:url(#linearGradient3449);fill-opacity:0.5;stroke-opacity:1.0;stroke-width:0.764583px;opacity:1.0"/><path d="M 358.03 255.394 C 358.03 259.772 356.863 264.575 354.536 268.482 C 351.851 272.011 348.119 274.242 344.206 274.734 C 340.296 275.228 336.564 273.982 333.875 271.316 C 331.672 269.155 330.495 265.796 330.325 261.665 C 330.316 261.44 330.288 261.241 330.243 261.064 C 330.066 256.883 331.303 253.242 333.771 250.842 C 336.465 248.193 340.21 246.956 344.136 247.457 C 348.059 247.961 351.804 250.203 354.501 253.74 C 356.846 257.668 358.03 262.482 358.03 266.86 L 358.03 266.86" style="fill:url(#linearGradient3816);stroke:url(#linearGradient3710);fill-opacity:0.6666666666666666;stroke-opacity:1.0;stroke-width:0.686111px;opacity:1.0"/><path d="M 363.505 279.417 C 363.505 284.888 361.617 290.439 358.132 294.714 C 354.468 298.8 349.453 301.219 344.214 301.465 C 338.976 301.712 333.961 299.785 330.295 296.131 C 326.993 292.849 325.117 288.224 324.905 283.059 C 324.894 282.778 324.876 282.509 324.854 282.252 C 324.766 276.878 326.688 271.909 330.244 268.388 C 333.912 264.741 338.933 262.819 344.179 263.069 C 349.424 263.321 354.445 265.746 358.115 269.836 C 361.609 274.122 363.505 279.678 363.505 285.149 L 363.505 285.149" style="fill:url(#linearGradient5768);stroke:url(#linearGradient5011);fill-opacity:0.8333333333333334;stroke-opacity:1.0;stroke-width:0.607639px;opacity:1.0"/><path d="M 368.98 303.439 C 368.98 310.005 366.371 316.302 361.728 320.945 C 357.085 325.588 350.788 328.196 344.222 328.196 C 337.656 328.196 331.359 325.588 326.716 320.945 C 322.313 316.542 319.739 310.651 319.485 304.454 C 319.472 304.116 319.465 303.778 319.465 303.439 C 319.465 296.873 322.073 290.576 326.716 285.933 C 331.359 281.29 337.656 278.682 344.222 278.682 C 350.788 278.682 357.085 281.29 361.728 285.933 C 366.371 290.576 368.98 296.873 368.98 303.439 Z" style="fill:url(#linearGradient422);stroke:url(#linearGradient6361);fill-opacity:1.0;stroke-opacity:1.0;stroke-width:0.529167px;opacity:1.0"/></svg:g><svg:g><path d="M 368.98 303.439 C 368.98 310.005 366.371 316.302 361.728 320.945 C 357.085 325.588 350.788 328.196 344.222 328.196 C 343.982 328.196 343.742 328.193 343.502 328.186 C 337.197 328.003 331.189 325.418 326.716 320.945 C 322.073 316.302 319.465 310.005 319.465 303.439 L 319.465 303.438 C 319.465 296.873 322.073 290.576 326.716 285.933 C 331.359 281.29 337.656 278.682 344.222 278.682 C 344.463 278.682 344.703 278.685 344.942 278.692 C 351.247 278.875 357.255 281.46 361.728 285.933 C 366.371 290.576 368.98 296.873 368.98 303.439 Z" style="fill:url(#linearGradient1050);stroke:#000000;fill-opacity:1.0;stroke-opacity:1.0;stroke-width:0.529167px;opacity:1.0"/><path d="M 306.968 300.1 C 306.968 305.572 306.485 310.82 304.327 314.689 C 301.934 318.558 298.177 320.731 293.14 320.731 C 293.022 320.731 292.866 320.729 292.666 320.723 C 287.412 320.57 282.405 320.044 278.678 317.965 C 274.809 315.786 272.635 312.25 272.635 306.778 L 272.635 306.777 C 272.635 301.306 273.118 296.058 275.276 292.189 C 277.67 288.32 281.426 286.147 286.463 286.147 C 286.582 286.147 286.737 286.15 286.937 286.155 C 292.191 286.308 297.198 286.834 300.925 288.914 C 304.794 291.092 306.968 294.628 306.968 300.1 Z" style="fill:url(#linearGradient2924);stroke:#000000;fill-opacity:1.0;stroke-opacity:1.0;stroke-width:0.529167px;opacity:1.0"/><path d="M 244.957 296.761 C 244.957 301.139 246.599 305.337 246.926 308.432 C 246.782 311.527 245.566 313.266 242.058 313.266 C 242.062 313.266 241.99 313.264 241.831 313.259 C 237.627 313.137 233.622 314.669 230.64 314.984 C 227.545 315.269 225.806 314.494 225.806 310.117 L 225.806 310.116 C 225.806 305.739 224.164 301.541 223.837 298.446 C 223.98 295.351 225.196 293.612 228.704 293.612 C 228.701 293.612 228.772 293.614 228.932 293.619 C 233.135 293.741 237.14 292.209 240.122 291.894 C 243.218 291.609 244.957 292.384 244.957 296.761 Z" style="fill:url(#linearGradient4337);stroke:#000000;fill-opacity:1.0;stroke-opacity:1.0;stroke-width:0.529167px;opacity:1.0"/><path d="M 182.945 293.423 C 182.945 296.706 186.713 299.854 189.524 302.176 C 191.63 304.497 192.955 305.801 190.977 305.801 C 191.102 305.801 191.115 305.8 190.995 305.796 C 187.843 305.704 184.838 309.295 182.602 312.003 C 180.281 314.752 178.976 316.738 178.976 313.455 L 178.976 313.455 C 178.976 310.172 175.209 307.024 172.397 304.702 C 170.291 302.381 168.966 301.077 170.945 301.077 C 170.82 301.077 170.807 301.078 170.926 301.082 C 174.079 301.174 177.083 297.583 179.319 294.875 C 181.641 292.126 182.945 290.14 182.945 293.423 Z" style="fill:url(#linearGradient3443);stroke:#000000;fill-opacity:1.0;stroke-opacity:1.0;stroke-width:0.529167px;opacity:1.0"/><path d="M 120.934 290.084 C 120.934 292.273 126.826 294.372 132.123 295.919 C 136.479 297.467 140.344 298.336 139.895 298.336 C 140.142 298.336 140.239 298.335 140.159 298.333 C 138.058 298.272 136.055 303.921 134.564 309.023 C 133.016 314.235 132.147 318.983 132.147 316.794 L 132.147 316.794 C 132.147 314.605 126.254 312.506 120.957 310.959 C 116.602 309.411 112.736 308.542 113.186 308.542 C 112.939 308.542 112.841 308.543 112.921 308.545 C 115.023 308.606 117.026 302.957 118.516 297.855 C 120.064 292.643 120.934 287.895 120.934 290.084 Z" style="fill:url(#linearGradient3230);stroke:#000000;fill-opacity:1.0;stroke-opacity:1.0;stroke-width:0.529167px;opacity:1.0"/><path d="M 58.9221 286.745 C 58.9221 287.839 66.9402 288.889 74.7219 289.663 C 81.3271 290.437 87.733 290.871 88.813 290.871 C 89.1815 290.871 89.3636 290.871 89.3236 290.87 C 88.2728 290.839 87.2715 298.547 86.526 306.042 C 85.7522 313.719 85.3174 321.227 85.3174 320.133 L 85.3174 320.133 C 85.3175 319.039 77.2994 317.989 69.5177 317.215 C 62.9124 316.441 56.5065 316.007 55.4266 316.007 C 55.058 316.007 54.876 316.007 54.9159 316.008 C 55.9667 316.039 56.9681 308.331 57.7136 300.836 C 58.4874 293.159 58.9221 285.651 58.9221 286.745 Z" style="fill:url(#linearGradient8683);stroke:#000000;fill-opacity:1.0;stroke-opacity:1.0;stroke-width:0.529167px;opacity:1.0"/><path d="M -3.08938 283.406 L 17.3206 283.406 L 37.7311 283.406 L 38.488 283.406 L 38.488 303.061 L 38.488 323.472 L 38.488 323.472 L 18.078 323.472 L -2.33252 323.472 L -3.08938 323.472 L -3.08938 303.817 L -3.08938 283.406 Z" style="fill:url(#linearGradient6015);stroke:#000000;fill-opacity:1.0;stroke-opacity:1.0;stroke-width:0.529167px;opacity:1.0"/></svg:g><svg:g><path d="M -3.08938 283.406 L 8.57346 283.406 L 20.237 283.406 L 31.9001 283.406 L 38.488 283.406 L 38.488 288.482 L 38.488 300.145 L 38.488 311.808 L 38.488 323.472 L 38.4875 323.472 L 26.8239 323.472 L 15.1607 323.472 L 3.49807 323.472 L -3.08938 323.472 L -3.08938 318.396 L -3.08938 306.733 L -3.08938 295.07 Z" style="fill:url(#linearGradient863);stroke:#000000;fill-opacity:1.0;stroke-opacity:1.0;stroke-width:0.529167px;opacity:1.0"/><path d="M 1.14554 317.672 C 1.14554 317.672 3.26017 315.583 8.75688 315.583 C 11.7752 315.583 12.2215 315.84 15.5202 315.84 C 19.0871 315.84 22.8515 312.889 25.5585 312.889 C 28.849 312.889 30.4449 312.254 29.8938 311.674 C 29.4306 311.187 29.0044 312.394 29.0044 314.968 C 29.0044 317.537 31.5097 319.431 31.5097 323.097 C 31.5097 326.366 31.9172 326.84 31.9172 329.877 C 31.9172 335.346 34.7224 340.564 34.7224 340.564 L 34.722 340.564 C 34.6751 340.564 33.0208 339.05 27.5543 339.05 C 24.5361 339.05 22.1263 341.847 18.8277 341.847 C 15.261 341.847 14.5906 342.898 11.8838 342.898 C 8.59346 342.898 5.93153 343.642 5.50893 344.321 C 5.15374 344.892 4.82688 343.762 4.82688 341.188 C 4.82688 338.619 5.73508 337.96 5.73508 334.294 C 5.73508 331.025 2.78792 327.957 2.78792 324.92 C 2.78792 319.451 1.14554 317.672 1.14554 317.672" style="fill:url(#linearGradient863);stroke:#000000;fill-opacity:1.0;stroke-opacity:1.0;stroke-width:0.529167px;opacity:1.0"/><path d="M 5.38046 351.937 C 5.38046 351.937 4.54293 347.759 8.94029 347.759 C 11.3549 347.759 8.16455 348.273 10.8035 348.273 C 13.657 348.273 17.0512 342.373 19.2168 342.373 C 21.8492 342.373 22.4019 341.103 21.2997 339.943 C 20.3733 338.968 19.5208 339.395 19.5208 341.454 C 19.5208 343.51 24.5315 343.117 24.5315 346.049 C 24.5315 348.664 25.3464 345.516 25.3464 347.947 C 25.3464 352.321 30.9568 357.657 30.9568 357.657 L 30.9565 357.657 C 30.919 357.657 32.658 354.629 28.2848 354.629 C 25.8702 354.629 25.1336 360.222 22.4948 360.222 C 19.6414 360.222 22.4349 362.324 20.2695 362.324 C 17.6372 362.324 14.9524 363.812 14.1072 365.17 C 13.3969 366.312 12.7431 366.039 12.7431 363.98 C 12.7431 361.924 14.5595 364.787 14.5595 361.854 C 14.5595 359.239 8.66523 357.2 8.66523 354.77 C 8.66523 350.395 5.38046 351.937 5.38046 351.937" style="fill:url(#linearGradient863);stroke:#000000;fill-opacity:1.0;stroke-opacity:1.0;stroke-width:0.529167px;opacity:1.0"/><path d="M 9.61538 386.202 C 9.61538 386.202 5.82568 379.936 9.12371 379.936 C 10.9347 379.936 4.10759 380.706 6.08682 380.706 C 8.22693 380.706 11.2509 371.856 12.8751 371.856 C 14.8494 371.856 14.3588 369.951 12.7055 368.211 C 11.3159 366.748 10.0372 366.396 10.0372 367.94 C 10.0372 369.482 17.5532 366.802 17.5532 369.001 C 17.5532 370.963 18.7756 364.193 18.7756 366.016 C 18.7756 369.297 27.1913 374.749 27.1913 374.749 L 27.191 374.749 C 27.1629 374.749 32.2952 370.207 29.0153 370.207 C 27.2043 370.207 28.141 378.596 26.1618 378.596 C 24.0218 378.596 30.2793 381.75 28.6552 381.75 C 26.681 381.75 23.9733 383.982 22.7055 386.02 C 21.64 387.733 20.6594 388.316 20.6594 386.771 C 20.6594 385.23 23.384 391.614 23.384 389.415 C 23.384 387.454 14.5425 386.442 14.5425 384.62 C 14.5425 381.339 9.61538 386.202 9.61538 386.202" style="fill:url(#linearGradient863);stroke:#000000;fill-opacity:1.0;stroke-opacity:1.0;stroke-width:0.529167px;opacity:1.0"/><path d="M 13.8503 420.467 C 13.8503 420.467 7.10844 412.113 9.30712 412.113 C 10.5144 412.113 0.0506185 413.14 1.37011 413.14 C 2.79685 413.14 5.45063 401.339 6.53343 401.339 C 7.84963 401.339 6.31577 398.799 4.11136 396.479 C 2.25857 394.529 0.553565 393.397 0.553565 394.426 C 0.553565 395.454 10.575 390.487 10.575 391.954 C 10.575 393.261 12.2048 382.87 12.2048 384.085 C 12.2048 386.272 23.4257 391.842 23.4257 391.842 L 23.4255 391.842 C 23.4068 391.842 31.9324 385.786 29.7458 385.786 C 28.5385 385.786 31.1483 396.971 29.8289 396.971 C 28.4022 396.971 38.1236 401.176 37.0409 401.176 C 35.7247 401.176 32.9942 404.152 31.3039 406.869 C 29.8831 409.153 28.5757 410.593 28.5757 409.563 C 28.5757 408.535 32.2084 418.442 32.2084 416.975 C 32.2084 415.668 20.4198 415.685 20.4198 414.47 C 20.4198 412.282 13.8503 420.467 13.8503 420.467" style="fill:url(#linearGradient863);stroke:#000000;fill-opacity:1.0;stroke-opacity:1.0;stroke-width:0.529167px;opacity:1.0"/><path d="M 18.0852 454.733 C 18.0852 454.733 8.39119 444.289 9.49054 444.289 C 10.0942 444.289 -4.00635 445.573 -3.34661 445.573 C -2.63323 445.573 -0.349649 430.822 0.191751 430.822 C 0.849851 430.822 -1.72728 427.647 -4.4828 424.747 C -6.79878 422.31 -8.93004 420.398 -8.93004 420.913 C -8.93004 421.426 3.59674 414.173 3.59674 414.906 C 3.59674 415.56 5.63397 401.546 5.63397 402.154 C 5.63397 403.248 19.6601 408.935 19.6601 408.935 L 19.66 408.935 C 19.6507 408.935 31.5695 401.364 30.4762 401.364 C 29.8726 401.364 34.1556 415.346 33.4959 415.346 C 32.7826 415.346 45.9679 420.603 45.4266 420.603 C 44.7685 420.603 42.0152 424.322 39.9022 427.719 C 38.1262 430.574 36.4919 432.87 36.4919 432.355 C 36.4919 431.841 41.0329 445.269 41.0329 444.536 C 41.0329 443.882 26.2971 444.927 26.2971 444.32 C 26.2971 443.226 18.0852 454.733 18.0852 454.733" style="fill:url(#linearGradient863);stroke:#000000;fill-opacity:1.0;stroke-opacity:1.0;stroke-width:0.529167px;opacity:1.0"/><path d="M 22.3201 488.998 L 9.67395 476.466 L -8.06332 478.007 L -6.14993 460.306 L -13.077 453.015 L -18.4137 447.399 L -3.38151 437.858 L -0.936837 420.223 L 15.8945 426.027 L 15.8945 426.027 L 31.2067 416.943 L 37.163 433.721 L 53.8123 440.029 L 48.5005 448.568 L 44.4082 455.147 L 49.8574 472.096 L 32.1744 474.17 Z" style="fill:url(#linearGradient863);stroke:#000000;fill-opacity:1.0;stroke-opacity:1.0;stroke-width:0.529167px;opacity:1.0"/></svg:g><svg:g><path d="M 22.3201 488.998 L 20.2655 486.962 L 16.2889 483.021 L 10.0146 476.803 L 9.67395 476.466 L -1.97777 477.478 L -8.06332 478.007 L -7.04815 468.615 L -6.14993 460.306 L -13.4432 452.63 L -18.4137 447.399 L -5.63705 439.29 L -3.38151 437.858 L -0.936837 420.223 L 4.05477 421.944 L 15.8945 426.027 L 30.2079 417.535 L 31.2067 416.943 L 37.163 433.721 L 49.8956 438.545 L 53.8123 440.029 L 44.4082 455.147 L 48.6934 468.476 L 49.8574 472.096 L 32.1744 474.17 Z" style="fill:url(#radialGradient827);stroke:#000000;fill-opacity:1.0;stroke-opacity:1.0;stroke-width:0.529167px;opacity:1.0"/><path d="M 75.3369 482.834 C 75.5043 483.178 74.2675 482.547 73.0525 481.415 C 71.6171 480.187 70.5859 478.26 69.7545 476.708 C 68.2276 473.893 67.0486 471.929 66.799 471.837 C 66.6453 471.693 66.5714 471.63 66.5971 471.669 C 67.2599 472.657 61.4281 474.487 56.2016 475.522 C 52.9083 476.123 50.025 476.461 49.4452 476.419 C 48.5445 476.354 48.103 471.858 48.0023 467.239 C 47.9145 462.99 48.1457 458.769 48.2781 457.982 C 48.4461 456.983 45.8008 452.635 43.8648 449.093 C 42.2925 446.395 41.0325 444.162 41.7175 444.155 C 43.1704 444.14 51.7631 440.381 56.0448 439.462 C 57.3126 438.971 58.175 438.73 58.2668 438.968 C 58.9044 440.623 60.5181 427.81 59.363 429.122 C 59.0281 429.502 60.4574 430.464 62.3416 431.533 C 65.3761 433.607 69.8638 435.761 68.6871 435.553 C 67.1183 435.275 74.7627 428.915 76.7602 425.786 C 77.2261 425.377 77.4823 425.094 77.4321 424.994 C 76.625 423.381 81.628 435.524 82.3181 433.951 C 82.8412 432.759 90.2472 434.186 95.5342 435.067 C 97.7818 435.577 99.5318 435.934 99.9117 435.807 C 101.591 435.247 95.5715 448.029 97.1186 448.798 C 98.3171 449.394 101.591 457.3 103.609 462.671 C 104.359 464.761 104.916 466.352 105.041 466.695 C 105.65 468.363 90.8425 471.896 90.2204 473.5 C 89.605 475.087 80.2397 488.834 78.6757 489.7" style="fill:url(#radialGradient2863);stroke:#000000;fill-opacity:1.0;stroke-opacity:1.0;stroke-width:0.485069px;opacity:1.0"/><path d="M 128.354 476.669 C 128.689 477.358 127.04 476.915 125.84 475.868 C 124.071 474.504 123.435 472.065 123.22 470.396 C 122.803 467.378 123.149 466.13 123.583 466.87 C 123.495 466.799 123.469 466.795 123.52 466.871 C 124.846 468.848 119.7 471.943 114.381 473.567 C 111.129 474.479 108.113 474.916 106.954 474.832 C 105.152 474.702 103.751 470.503 103.053 465.863 C 102.419 461.602 102.441 457.232 102.706 455.658 C 103.042 453.661 101.645 449.063 101.173 445.557 C 100.662 442.932 100.479 440.925 101.849 440.911 C 104.754 440.881 113.359 438.809 117.727 439.635 C 118.905 439.514 119.731 439.601 119.915 440.077 C 121.19 443.388 121.973 435.397 119.663 438.02 C 118.993 438.781 119.661 439.949 120.629 441.122 C 121.735 443.559 123.833 445.495 121.48 445.078 C 118.342 444.522 122.717 438.278 123.312 434.036 C 123.617 433.591 123.758 433.245 123.658 433.045 C 122.043 429.819 126.093 437.327 127.473 434.182 C 128.519 431.798 135.521 431.692 141.173 431.589 C 143.404 431.752 145.251 431.839 146.011 431.586 C 149.37 430.465 146.735 440.912 149.829 442.45 C 152.226 443.642 156.088 451.102 158.525 456.867 C 159.345 458.932 159.975 460.608 160.225 461.293 C 161.444 464.629 149.511 469.623 148.266 472.831 C 147.036 476.005 138.159 488.671 135.031 490.402" style="fill:url(#radialGradient3413);stroke:#000000;fill-opacity:1.0;stroke-opacity:1.0;stroke-width:0.440972px;opacity:1.0"/><path d="M 181.371 470.505 C 181.873 471.538 179.813 471.282 178.627 470.321 C 176.525 468.822 176.285 465.87 176.686 464.083 C 177.378 460.862 179.25 460.331 180.368 461.903 C 180.345 461.906 180.366 461.959 180.443 462.074 C 182.432 465.039 177.972 469.398 172.56 471.611 C 169.35 472.835 166.202 473.371 164.462 473.245 C 161.76 473.049 159.399 469.148 158.103 464.487 C 156.924 460.214 156.737 455.695 157.134 453.334 C 157.638 450.338 157.49 445.49 158.481 442.021 C 159.031 439.469 159.925 437.688 161.98 437.667 C 166.338 437.622 174.954 437.237 179.408 439.808 C 180.497 440.056 181.288 440.472 181.563 441.187 C 183.476 446.153 183.428 442.984 179.963 446.919 C 178.958 448.059 178.864 449.434 178.915 450.711 C 178.094 453.51 177.802 455.229 174.272 454.603 C 169.566 453.77 170.672 447.641 169.865 442.286 C 170.008 441.804 170.033 441.396 169.883 441.095 C 167.462 436.256 170.558 439.13 172.628 434.412 C 174.198 430.836 180.794 429.198 186.811 428.112 C 189.026 427.926 190.971 427.744 192.11 427.364 C 197.149 425.683 197.898 433.795 202.539 436.102 C 206.135 437.889 210.586 444.904 213.44 451.062 C 214.331 453.102 215.034 454.865 215.409 455.891 C 217.237 460.896 208.179 467.349 206.312 472.162 C 204.466 476.923 196.079 488.507 191.387 491.104" style="fill:url(#radialGradient9027);stroke:#000000;fill-opacity:1.0;stroke-opacity:1.0;stroke-width:0.396875px;opacity:1.0"/><path d="M 234.387 464.34 C 235.057 465.717 232.586 465.65 231.414 464.774 C 228.979 463.139 229.135 459.675 230.151 457.77 C 231.953 454.347 235.351 454.532 237.152 456.937 C 237.195 457.013 237.264 457.124 237.366 457.277 C 240.018 461.231 236.245 466.853 230.74 469.656 C 227.571 471.191 224.29 471.826 221.971 471.658 C 218.368 471.397 215.048 467.792 213.154 463.111 C 211.428 458.827 211.032 454.158 211.562 451.01 C 212.234 447.016 213.334 441.918 215.789 438.484 C 217.4 436.006 219.371 434.451 222.111 434.423 C 227.922 434.363 236.55 435.665 241.09 439.98 C 242.09 440.599 242.844 441.343 243.212 442.297 C 245.762 448.918 244.883 450.571 240.262 455.817 C 238.923 457.338 238.068 458.919 237.202 460.3 C 234.453 463.462 231.772 464.962 227.065 464.129 C 220.79 463.017 218.627 457.004 216.417 450.536 C 216.399 450.018 216.309 449.547 216.108 449.146 C 212.88 442.694 215.023 440.933 217.784 434.642 C 219.876 429.874 226.067 426.703 232.45 424.634 C 234.649 424.1 236.691 423.65 238.21 423.143 C 244.927 420.9 249.061 426.678 255.25 429.754 C 260.044 432.137 265.084 438.707 268.356 445.257 C 269.316 447.273 270.092 449.121 270.592 450.489 C 273.03 457.162 266.847 465.075 264.358 471.493 C 261.897 477.84 253.998 488.344 247.742 491.807" style="fill:url(#radialGradient1770);stroke:#000000;fill-opacity:1.0;stroke-opacity:1.0;stroke-width:0.352778px;opacity:1.0"/><path d="M 287.404 458.176 C 288.241 459.897 285.359 460.017 284.201 459.228 C 281.433 457.456 281.984 453.48 283.617 451.457 C 286.529 447.832 291.451 448.733 293.936 451.97 C 294.045 452.12 294.161 452.288 294.29 452.48 C 297.604 457.422 294.517 464.308 288.919 467.7 C 285.792 469.547 282.378 470.281 279.479 470.071 C 274.976 469.744 270.696 466.437 268.204 461.734 C 265.933 457.439 265.328 452.622 265.99 448.686 C 266.83 443.693 269.179 438.345 273.097 434.948 C 275.769 432.543 278.817 431.215 282.242 431.179 C 289.506 431.104 298.145 434.093 302.772 440.153 C 303.682 441.142 304.401 442.215 304.86 443.406 C 308.048 451.683 306.338 458.158 300.562 464.716 C 298.888 466.617 297.271 468.404 295.489 469.889 C 290.812 473.414 285.741 474.696 279.857 473.654 C 272.013 472.265 266.581 466.367 262.969 458.786 C 262.79 458.232 262.585 457.698 262.334 457.197 C 258.298 449.132 259.488 442.736 262.939 434.873 C 265.554 428.913 271.341 424.209 278.088 421.156 C 280.271 420.275 282.41 419.555 284.309 418.921 C 292.706 416.118 300.225 419.561 307.96 423.406 C 313.953 426.385 319.582 432.509 323.271 439.453 C 324.302 441.444 325.151 443.377 325.776 445.088 C 328.823 453.429 325.515 462.802 322.404 470.823 C 319.327 478.758 311.918 488.18 304.098 492.509" style="fill:url(#radialGradient2475);stroke:#000000;fill-opacity:1.0;stroke-opacity:1.0;stroke-width:0.308681px;opacity:1.0"/><path d="M 340.421 452.011 C 341.425 454.077 338.132 454.384 336.988 453.681 C 333.887 451.774 334.834 447.285 337.082 445.145 C 341.104 441.317 347.552 442.934 350.721 447.003 C 350.894 447.226 351.058 447.453 351.213 447.683 C 355.19 453.613 352.789 461.764 347.098 465.744 C 344.013 467.903 340.466 468.735 336.988 468.483 C 331.584 468.092 326.344 465.082 323.254 460.358 C 320.438 456.051 319.624 451.085 320.418 446.362 C 321.426 440.371 325.023 434.772 330.405 431.412 C 334.139 429.079 338.264 427.978 342.373 427.935 C 351.091 427.845 359.741 432.521 364.454 440.326 C 365.275 441.684 365.957 443.086 366.508 444.516 C 370.334 454.448 367.793 465.745 360.862 473.615 C 358.853 475.896 356.475 477.889 353.776 479.478 C 347.171 483.365 339.71 484.43 332.65 483.179 C 323.237 481.512 314.536 475.729 309.521 467.036 C 309.181 466.445 308.86 465.849 308.559 465.248 C 303.716 455.57 303.953 444.539 308.094 435.103 C 311.233 427.951 316.614 421.715 323.727 417.678 C 325.893 416.449 328.13 415.46 330.409 414.699 C 340.485 411.336 351.388 412.443 360.67 417.058 C 367.861 420.632 374.08 426.312 378.187 433.648 C 379.288 435.614 380.21 437.633 380.96 439.686 C 384.616 449.696 384.183 460.528 380.45 470.154 C 376.758 479.676 369.837 488.016 360.454 493.211" style="fill:url(#radialGradient5759);stroke:#000000;fill-opacity:1.0;stroke-opacity:1.0;stroke-width:0.264583px;opacity:1.0"/></svg:g></g>
</svg>